…
args(pca_rank_trace)

## function (x, type = "cov", k = 0) 
## NULL

args(pca_rank_trace_plot)

## function (x, type = "cov", k = 0, interactive = FALSE) 
## NULL

pca_rank_trace() and pca_rank_trace_plot() are special of rank_trace() and rank_trace_plot(), respectively, when \(\mathbf{Y} \equiv \mathbf{X}\) and \(\mathbf{\Gamma} = \mathbf{I}_r\).

pca_rank_trace(digits_features)

## # A tibble: 35 × 3
##     rank   delta_C delta_residuals
##    <int>     <dbl>           <dbl>
## 1      0 1.0000000      1.00000000
## 2      1 0.9851844      0.71433119
## 3      2 0.9701425      0.46892679
## 4      3 0.9548637      0.30799061
## 5      4 0.9393364      0.22717008
## 6      5 0.9235481      0.16953413
## 7      6 0.9074852      0.11807750
## 8      7 0.8911328      0.08697453
## 9      8 0.8744746      0.05887330
## 10     9 0.8574929      0.04079132
## # ... with 25 more rows
…
args(rrpca)

## function (x, rank = "full", type = "cov", k = 0) 
## NULL

digits_class <- digits %>% dplyr::select(V35)
digits_features <- digits %>% dplyr::select(-V5, -V6)

digits_pca <- rrpca(digits_features)

digits_pca

## $means
## # A tibble: 34 × 1
##       value
## *     <dbl>
## 1  38.81432
## 2  85.12027
## 3  40.60562
## 4  83.77420
## 5  51.22025
## 6  44.49900
## 7  56.86854
## 8  33.69596
## 9  60.51638
## 10 34.82651
## # ... with 24 more rows
## 
## $C
## # A tibble: 34 × 34
##               V1            V2            V3            V4            V5
##            <dbl>         <dbl>         <dbl>         <dbl>         <dbl>
## 1   1.000000e+00 -1.942890e-16  1.526557e-16  1.021318e-16 -2.775558e-16
## 2  -1.942890e-16  1.000000e+00  4.414871e-16 -2.914335e-16 -1.318390e-16
## 3   1.526557e-16  4.414871e-16  1.000000e+00  1.231654e-16  1.222980e-16
## 4   1.021318e-16 -2.914335e-16  1.231654e-16  1.000000e+00 -4.145989e-16
## 5  -2.775558e-16 -1.318390e-16  1.222980e-16 -4.145989e-16  1.000000e+00
## 6  -1.110223e-16 -5.551115e-17  6.591949e-17 -4.718448e-16  1.179612e-16
## 7  -1.114560e-16  3.816392e-17  9.194034e-17  3.400058e-16 -5.377643e-17
## 8   2.324529e-16 -1.110223e-16  1.023487e-16 -2.706169e-16  1.214306e-16
## 9  -2.081668e-17  1.106428e-16 -3.489098e-17  7.047314e-17 -4.069282e-16
## 10  2.498002e-16 -4.163336e-17 -5.637851e-17 -2.428613e-17  1.405126e-16
## # ... with 24 more rows, and 29 more variables: V6 <dbl>, V7 <dbl>,
## #   V8 <dbl>, V9 <dbl>, V10 <dbl>, V11 <dbl>, V12 <dbl>, V13 <dbl>,
## #   V14 <dbl>, V15 <dbl>, V16 <dbl>, V17 <dbl>, V18 <dbl>, V19 <dbl>,
## #   V20 <dbl>, V21 <dbl>, V22 <dbl>, V23 <dbl>, V24 <dbl>, V25 <dbl>,
## #   V26 <dbl>, V27 <dbl>, V28 <dbl>, V29 <dbl>, V30 <dbl>, V31 <dbl>,
## #   V32 <dbl>, V33 <dbl>, V34 <dbl>
## 
## $PC
## # A tibble: 34 × 34
##            PC1         PC2         PC3           PC4          PC5
##          <dbl>       <dbl>       <dbl>         <dbl>        <dbl>
## 1  -0.03387102  0.13029152 -0.36925608 -0.0557669954 -0.455824378
## 2   0.02889750  0.04894617 -0.10146162  0.0297692102 -0.052485351
## 3  -0.10713998 -0.10659910 -0.19971425 -0.1867322127  0.086694722
## 4  -0.05936310 -0.13286056 -0.12306986  0.0003095884 -0.045021414
## 5  -0.08459809 -0.06412648  0.33637840 -0.2417182761 -0.230328973
## 6  -0.26801027 -0.13483718  0.08883391  0.0108538776 -0.024645693
## 7  -0.22122135  0.18873574  0.21627977  0.0448592607 -0.252691425
## 8  -0.19776810  0.07579367  0.19075917  0.0530807274 -0.014630565
## 9  -0.22462146  0.32671341 -0.05358243  0.1570188597  0.222779203
## 10  0.05618133  0.21562910  0.20521911  0.0728999493 -0.002345969
## # ... with 24 more rows, and 29 more variables: PC6 <dbl>, PC7 <dbl>,
## #   PC8 <dbl>, PC9 <dbl>, PC10 <dbl>, PC11 <dbl>, PC12 <dbl>, PC13 <dbl>,
## #   PC14 <dbl>, PC15 <dbl>, PC16 <dbl>, PC17 <dbl>, PC18 <dbl>,
## #   PC19 <dbl>, PC20 <dbl>, PC21 <dbl>, PC22 <dbl>, PC23 <dbl>,
## #   PC24 <dbl>, PC25 <dbl>, PC26 <dbl>, PC27 <dbl>, PC28 <dbl>,
## #   PC29 <dbl>, PC30 <dbl>, PC31 <dbl>, PC32 <dbl>, PC33 <dbl>, PC34 <dbl>
…
