…
We can see that rrr() with rank = "full" and k = 0 returns the classical multivariate regression coefficients as before. They differ only by a transpose, and is presented this way in rrr as a matter of convention. It is this form that is presented in the literature (Izenman, 2008).

 Diagnostics

 Calculate Residuals with rrr_residuals()

args(rrr_residuals_plot)

## function (x, y, gamma_matrix, rank = "full", type = "cov", k = 0) 
## NULL

rrr_residuals(tobacco_x, tobacco_y, ident, rank = 1)

## # A tibble: 25 × 3
##    Y1.BurnRate Y2.PercentSugar Y3.PercentNicotine
##          <dbl>           <dbl>              <dbl>
## 1  -0.15358056       3.9207245         -0.9019766
## 2  -0.20963638       0.6975085         -0.6966471
## 3  -0.07296342       3.3478677         -0.9497452
## 4  -0.20128009       2.9831896         -0.1991789
## 5  -0.12358413       1.6364610         -0.3622142
## 6  -0.04949370       0.3195653         -1.2428487
## 7  -0.04185307       2.0824285         -0.3387954
## 8  -0.14497977       2.7465342         -0.1903404
## 9  -0.09788965       1.5330911         -0.5878621
## 10 -0.35531326       2.6111104         -0.3332054
## # ... with 15 more rows
…
