…
 Diagnostics

 Calculate residuals with cva_residuals()

args(cva_residuals)

## function (x, y, rank = "full", type = "cov", k = 0) 
## NULL

cva_residuals(galaxy_x, galaxy_y, rank = 2, k = 0.001)

## # A tibble: 3,462 × 3
##    index        CV1        CV2
##    <int>      <dbl>      <dbl>
## 1      1 -0.3202596  0.5609487
## 2      2 -0.3373066 -0.3235156
## 3      3  0.2342563  0.2243338
## 4      4  0.2188205  0.6709930
## 5      5 -0.7183237  1.5344605
## 6      6 -1.0225019  0.1872628
## 7      7  0.2784014  0.5923622
## 8      8 -0.1242796  0.6893633
## 9      9  0.2544044  0.2704908
## 10    10 -0.6856947 -0.1686793
## # ... with 3,452 more rows
…
 Calculate Canonical Variate Scores with cva_scores()

args(cva_scores)

## function (x, y, rank = "full", type = "cov", k = 0) 
## NULL

scores <- cva_scores(galaxy_x, galaxy_y, k = 0.0001)

scores

## $xi
## # A tibble: 3,462 × 6
##            xi1         xi2         xi3          xi4           xi5
##          <dbl>       <dbl>       <dbl>        <dbl>         <dbl>
## 1   0.10939069  0.37863862  0.09371909 -0.003416401  0.0304444050
## 2  -0.03538215  1.44069847  0.59607833 -0.030832491 -1.1786675532
## 3  -1.00592711  0.13378629 -0.07555343  0.075422524 -0.0103557500
## 4   0.04954501  0.09491797  0.13809968 -0.046355061  0.0658264675
## 5   0.08832029 -0.08406486 -0.94084545 -0.087123895 -0.1673241799
## 6  -0.54188182  0.60825647 -0.21698924 -0.189999849 -0.0109414043
## 7   0.43229161  0.55503061  0.30205123 -0.103879503  0.1676262684
## 8   0.54398298  0.34909483 -0.36149807 -0.183401317  0.0534814641
## 9   0.08025841  0.25643637  0.01428582  0.116461965 -0.0002147714
## 10  3.02965620 -0.65724548  0.19306838 -0.005443985  0.1183344965
## # ... with 3,452 more rows, and 1 more variables: xi6 <dbl>
## 
## $omega
## # A tibble: 3,462 × 6
##         omega1     omega2      omega3      omega4      omega5     omega6
##          <dbl>      <dbl>       <dbl>       <dbl>       <dbl>      <dbl>
## 1   0.13299889 -0.2173703 -0.82056198  2.36274461  1.87573329 -2.7920084
## 2  -0.03692747  1.4276006  0.58346789 -0.03508845 -1.15833053 -0.4571182
## 3  -1.39563939 -0.2373857  0.63559910 -0.33690047  1.94034502 -2.4384869
## 4   0.08731544  1.0810924  1.86899400  0.13642828 -0.12305606 -1.9836103
## 5   0.52632555  0.1414576 -7.69998276 -3.47083455 -0.43477107  2.9161274
## 6  -0.54285403  0.7202036 -3.06887667 -2.24228337 -2.47056921  2.0813830
## 7   0.45612941  1.0018636  0.02338828 -0.74050515  0.39177820 -0.1386883
## 8   0.07037098  1.1413856  0.34575432 -0.34985205  0.07238352  1.3803591
## 9   0.25717552  0.4112277  0.66382655  0.42277241  0.32681940 -0.8157131
## 10  2.60406898 -0.5219489 -0.13703696 -0.72516693 -0.46445692 -1.5229440
## # ... with 3,452 more rows
## 
## $canonical_corr
## [1] 0.93863397 0.46957833 0.07553122 0.02573175 0.01503215 0.01113977
…
