…
 Assesss Effective Dimensionality

 Diagnostics

 Fit LDA Model

 Fit LDA model with lda()

lda(digits_features, digits_class, rank = 3)

## $G
## # A tibble: 34 × 3
##          LD1         LD2       LD3
##        <dbl>       <dbl>     <dbl>
## 1    2405021 -11209838.3 -17497369
## 2    4073385  -2531157.7  -4667681
## 3  -11362280   2734881.6 -10564953
## 4   -8676515   6433188.5  -6791473
## 5   -9345338   2121623.6  15997927
## 6  -25724450   -683783.7   3233597
## 7  -11903070 -20598146.8  11458301
## 8  -13663134 -12059795.1   9450861
## 9   -7258174 -30742922.8  -1186985
## 10  10862274 -11973305.9  11306444
## # ... with 24 more rows
## 
## $H
…
