…
 Calculate LDA Scores with lda_scores()

lda_scores(iris_features, iris_class, k = 0.0001)

## $scores
## # A tibble: 150 × 3
##          LD1          LD2  class
##        <dbl>        <dbl> <fctr>
## 1  -1.387251  0.125583983 setosa
## 2  -1.226743 -0.329163835 setosa
## 3  -1.288897 -0.111147085 setosa
## 4  -1.172385 -0.280353248 setosa
## 5  -1.399367  0.215173886 setosa
## 6  -1.325346  0.611160171 setosa
## 7  -1.241218  0.148631516 setosa
## 8  -1.308661 -0.004785237 setosa
## 9  -1.128974 -0.424580855 setosa
## 10 -1.263476 -0.395904243 setosa
## # ... with 140 more rows
## 
## $class_means
…
