…
digits_class <- digits %>% dplyr::select(V35)
digits_features <- digits %>% dplyr::select(-V5, -V6)

digits_pca <- rrpca(digits_features)

pca_gof(digits_features) %>% round(4)

##  [1] 0.7143 0.4689 0.3080 0.2272 0.1695 0.1181 0.0870 0.0589 0.0408 0.0270
## [11] 0.0186 0.0120 0.0075 0.0039 0.0020 0.0007 0.0003 0.0000 0.0000 0.0000
## [21] 0.0000 0.0000 0.0000 0.0000 0.0000 0.0000 0.0000 0.0000 0.0000 0.0000
## [31] 0.0000 0.0000 0.0000 0.0000

pca_rank_trace(digits_features)

## # A tibble: 35 × 3
##     rank   delta_C delta_residuals
##    <int>     <dbl>           <dbl>
## 1      0 1.0000000      1.00000000
## 2      1 0.9851844      0.71433119
## 3      2 0.9701425      0.46892679
## 4      3 0.9548637      0.30799061
## 5      4 0.9393364      0.22717008
## 6      5 0.9235481      0.16953413
## 7      6 0.9074852      0.11807750
## 8      7 0.8911328      0.08697453
## 9      8 0.8744746      0.05887330
## 10     9 0.8574929      0.04079132
## # ... with 25 more rows
…
