Expand Feature Space — expand_feature_space • rrr
…
      feature_space
      a matrix or data frame of input variables

    Value

    data frame of all input variables, their squares and all cross products

    Examples

data(iris)
iris_features <- iris[,1:4]
expand_feature_space(iris)
#> Warning: ‘^’ not meaningful for factors
#> # A tibble: 150 × 10
#>    sepal.length sepal.width petal.length petal.width        type
#>           <dbl>       <dbl>        <dbl>       <dbl>      <fctr>
#> 1           5.1         3.5          1.4         0.2 Iris-setosa
#> 2           4.9         3.0          1.4         0.2 Iris-setosa
#> 3           4.7         3.2          1.3         0.2 Iris-setosa
#> 4           4.6         3.1          1.5         0.2 Iris-setosa
#> 5           5.0         3.6          1.4         0.2 Iris-setosa
#> 6           5.4         3.9          1.7         0.4 Iris-setosa
#> 7           4.6         3.4          1.4         0.3 Iris-setosa
#> 8           5.0         3.4          1.5         0.2 Iris-setosa
#> 9           4.4         2.9          1.4         0.2 Iris-setosa
#> 10          4.9         3.1          1.5         0.1 Iris-setosa
#> # ... with 140 more rows, and 5 more variables: sepal.length_squared <dbl>,
#> #   sepal.width_squared <dbl>, petal.length_squared <dbl>,
#> #   petal.width_squared <dbl>, type_squared <lgl>
…
