Fit Reduced-Rank LDA Model — lda • rrr
…
    `list` containing: a data frame of class

    References

    Izenman, A. J. (2008) Modern Multivariate Statistical Techniques. Springer.

    Examples

data(pendigits)
digits_features <- pendigits[,-35:-36]
digits_class <- pendigits[,35]
lda(digits_features, digits_class, rank = 3, k = 0.001)
#> $G
#> # A tibble: 34 × 3
#>                 LD1              LD2              LD3
#>              <cplx>           <cplx>           <cplx>
#> 1  -4.084331e-04+0i  2.673256e-03+0i -2.828805e-03+0i
#> 2   1.318003e-04+0i  1.744069e-03+0i -7.641535e-03+0i
#> 3   1.760460e-04+0i  2.251182e-04+0i -4.268579e-05+0i
#> 4   2.674138e-04+0i -4.999458e-03+0i  1.070153e-02+0i
#> 5  -6.090273e-05+0i -2.958977e-03+0i  6.886435e-03+0i
#> 6  -1.871425e-04+0i  1.660323e-03+0i -3.183527e-04+0i
#> 7   1.024797e-04+0i -1.769586e-03+0i -1.934749e-03+0i
#> 8   9.924649e-05+0i  3.954015e-05+0i  1.137345e-03+0i
#> 9  -3.667089e-05+0i  3.541013e-04+0i  3.179892e-03+0i
#> 10 -6.109829e-04+0i  7.364155e-04+0i  4.902319e-03+0i
#> # ... with 24 more rows
…
