Linear Discriminant Scores — lda_scores • rrr
…
    Value

    list containing: data frame of linear discriminant function scores; data frame of class means.

    References

    Izenman, A.J. (2008) Modern Multivariate Statistical Techniques. Springer.

    Examples

data(iris)
lda_scores(iris[,1:4], iris[,5])
#> $scores
#> # A tibble: 150 × 3
#>          LD1          LD2  class
#>        <dbl>        <dbl> <fctr>
#> 1  -1.387419  0.125704003 setosa
#> 2  -1.226832 -0.329159709 setosa
#> 3  -1.288983 -0.111043950 setosa
#> 4  -1.172537 -0.280609930 setosa
#> 5  -1.399553  0.215264848 setosa
#> 6  -1.325489  0.611623049 setosa
#> 7  -1.241276  0.148891363 setosa
#> 8  -1.308855 -0.004867908 setosa
#> 9  -1.129057 -0.424771543 setosa
#> 10 -1.263725 -0.396383630 setosa
#> # ... with 140 more rows
…
