Fit Reduced-Rank Principal Component Model — pca • rrr
…
    References

    Izenman, A. J. (2008) Modern Multivariate Statistical Techniques. Springer.

    Examples

data(pendigits)
digits_features <- pendigits[, -35:-36]
pca(digits_features, rank = 3)
#> $means
#> # A tibble: 34 × 1
#>       value
#> *     <dbl>
#> 1  38.81432
#> 2  85.12027
#> 3  40.60562
#> 4  83.77420
#> 5  49.77038
#> 6  65.57314
#> 7  51.22025
#> 8  44.49900
#> 9  56.86854
#> 10 33.69596
#> # ... with 24 more rows
#> 
#> $C
#> # A tibble: 34 × 34
#>             V1           V2           V3           V4           V5           V6
#>          <dbl>        <dbl>        <dbl>        <dbl>        <dbl>        <dbl>
#> 1   0.15227028  0.041971586  0.057621563  0.032824603 -0.083070856 -0.005097600
#> 2   0.04197159  0.013118640  0.010598715  0.005435764 -0.027861499 -0.010118470
#> 3   0.05762156  0.010598715  0.057059768  0.042972135  0.005136858  0.048612391
#> 4   0.03282460  0.005435764  0.042972135  0.034784478  0.014445469  0.041246125
#> 5  -0.08307086 -0.027861499  0.005136858  0.014445469  0.083611542  0.054433598
#> 6  -0.00509760 -0.010118470  0.048612391  0.041246125  0.054433598  0.074336749
#> 7  -0.12925579 -0.039313730 -0.047145641 -0.030698476  0.070011543  0.011999221
#> 8  -0.03613352 -0.021185046  0.025475341  0.019298193  0.056664934  0.065381821
#> 9  -0.04375152 -0.018001465 -0.036555354 -0.038171115 -0.002983700 -0.013777198
#> 10 -0.05163631 -0.020586646 -0.022911782 -0.022807068  0.019987392  0.007198665
#> # ... with 24 more rows, and 28 more variables: V7 <dbl>, V8 <dbl>, V9 <dbl>,
#> #   V10 <dbl>, V11 <dbl>, V12 <dbl>, V13 <dbl>, V14 <dbl>, V15 <dbl>,
#> #   V16 <dbl>, V17 <dbl>, V18 <dbl>, V19 <dbl>, V20 <dbl>, V21 <dbl>,
#> #   V22 <dbl>, V23 <dbl>, V24 <dbl>, V25 <dbl>, V26 <dbl>, V27 <dbl>,
#> #   V28 <dbl>, V29 <dbl>, V30 <dbl>, V31 <dbl>, V32 <dbl>, V33 <dbl>, V34 <dbl>
#> 
#> $PC
#> # A tibble: 34 × 3
#>            PC1          PC2         PC3
#>          <dbl>        <dbl>       <dbl>
#> 1   0.02861158 -0.142768395 -0.36203431
#> 2   0.04680878 -0.033512929 -0.09901748
#> 3  -0.13901701  0.046687918 -0.18855842
#> 4  -0.10267046  0.083217740 -0.13159811
#> 5  -0.15980723  0.196663538  0.13927183
#> 6  -0.24050660  0.117714673 -0.05134764
#> 7  -0.10613246  0.031714447  0.33613210
#> 8  -0.28960021 -0.002314316  0.07783244
#> 9  -0.11746249 -0.263105908  0.21532196
#> 10 -0.14441246 -0.150734547  0.19065755
#> # ... with 24 more rows
…
