Fit Reduced-Rank Regression Model — rrr • rrr
…
rrr(digits_features, digits_features, type = "pca", rank = 3)
#> $means
#>        V1        V2        V3        V4        V5        V6        V7        V8 
#> 38.814320 85.120269 40.605622 83.774199 49.770378 65.573144 51.220251 44.498999 
#>        V9       V10       V11       V12       V13       V14       V15       V16 
#> 56.868541 33.695961 60.516376 34.826510 55.022289 34.937045 47.287482 28.845342 
#>       V17       V18       V19       V20       V21       V22       V23       V24 
#>  4.431587  5.341794 38.814320 85.120269 40.605622 83.774199 49.770378 65.573144 
#>       V25       V26       V27       V28       V29       V30       V31       V32 
#> 51.220251 44.498999 56.868541 33.695961 60.516376 34.826510 55.022289 34.937045 
#>       V33       V34 
#> 47.287482 28.845342 
#> 
#> $C
#> # A tibble: 34 × 34
#>             V1           V2           V3           V4           V5           V6
#>          <dbl>        <dbl>        <dbl>        <dbl>        <dbl>        <dbl>
#> 1   0.15227028  0.041971586  0.057621563  0.032824603 -0.083070856 -0.005097600
#> 2   0.04197159  0.013118640  0.010598715  0.005435764 -0.027861499 -0.010118470
#> 3   0.05762156  0.010598715  0.057059768  0.042972135  0.005136858  0.048612391
#> 4   0.03282460  0.005435764  0.042972135  0.034784478  0.014445469  0.041246125
#> 5  -0.08307086 -0.027861499  0.005136858  0.014445469  0.083611542  0.054433598
#> 6  -0.00509760 -0.010118470  0.048612391  0.041246125  0.054433598  0.074336749
#> 7  -0.12925579 -0.039313730 -0.047145641 -0.030698476  0.070011543  0.011999221
#> 8  -0.03613352 -0.021185046  0.025475341  0.019298193  0.056664934  0.065381821
#> 9  -0.04375152 -0.018001465 -0.036555354 -0.038171115 -0.002983700 -0.013777198
#> 10 -0.05163631 -0.020586646 -0.022911782 -0.022807068  0.019987392  0.007198665
#> # ... with 24 more rows, and 28 more variables: V7 <dbl>, V8 <dbl>, V9 <dbl>,
#> #   V10 <dbl>, V11 <dbl>, V12 <dbl>, V13 <dbl>, V14 <dbl>, V15 <dbl>,
#> #   V16 <dbl>, V17 <dbl>, V18 <dbl>, V19 <dbl>, V20 <dbl>, V21 <dbl>,
#> #   V22 <dbl>, V23 <dbl>, V24 <dbl>, V25 <dbl>, V26 <dbl>, V27 <dbl>,
#> #   V28 <dbl>, V29 <dbl>, V30 <dbl>, V31 <dbl>, V32 <dbl>, V33 <dbl>, V34 <dbl>
#> 
#> $PC
#> # A tibble: 34 × 3
#>            PC1          PC2         PC3
#>          <dbl>        <dbl>       <dbl>
#> 1   0.02861158 -0.142768395 -0.36203431
#> 2   0.04680878 -0.033512929 -0.09901748
#> 3  -0.13901701  0.046687918 -0.18855842
#> 4  -0.10267046  0.083217740 -0.13159811
#> 5  -0.15980723  0.196663538  0.13927183
#> 6  -0.24050660  0.117714673 -0.05134764
#> 7  -0.10613246  0.031714447  0.33613210
#> 8  -0.28960021 -0.002314316  0.07783244
#> 9  -0.11746249 -0.263105908  0.21532196
#> 10 -0.14441246 -0.150734547  0.19065755
#> # ... with 24 more rows
…
